{
  "tasks": {
    "dev": "deno run --allow-read --allow-write --allow-net --watch cache_updater.ts",
    "prod": "deno run --allow-read --allow-write --allow-net cache_updater.ts",
    "download": "deno run --allow-read --allow-write --allow-net download_image.ts"
  },
  "imports": {
    "@std/assert": "jsr:@std/assert@1",
    "@std/crypto": "jsr:@std/crypto@^1.0.3",
    "@std/encoding": "jsr:@std/encoding@^1.0.5",
    "@std/fs": "jsr:@std/fs@^1.0.6",
    "@std/path": "jsr:@std/path@^1.0.8",
    "@std/streams": "jsr:@std/streams@^1.0.8"
  },
  "lint": {
    "exclude": [
      "fixtures"
    ]
  },
  "fmt": {
    "exclude": [
      "fixtures"
    ]
  }
}
